{
  
  "padrao":[
    {
      "nome":"Pessoa Física Cidadão",
      "dt_nasc":"1992-08-04",
      "cpf":"000.000.000-22",
      "endereco": "rua dos naufragos, 554",
      "cep":"49160000",
      "cidade":"Nossa Senhora do Socorro",
      "email":"email@gmail.com",
      "telefone":"(79) 98122-2233",
      "isc_estadual":null,
      "cnpj":"11.111.222/0001-22",
      "razao_social":null,
      "atualizadoem": "2019-01-01",
      "informacoes": "texto de blablablablablals eteste texto aqui talvez"
    },
    {
      "nome":"Testinho 2",
      "dt_nasc":"1992-08-04",
      "cpf":"332.224.552-22",
      "endereco": "rua dos afogados, 554",
      "cep":"49160000",
      "cidade":"Nossa Senhora do Socorro",
      "email":"email@gmail.com",
      "telefone":"(79) 98122-2233",
      "isc_estadual":null,
      "cnpj":"11.111.222/0001-22",
      "razao_social":null,
      "atualizadoem": "2019-01-01",
      "informacoes": "texto de blablablablablals eteste texto aqui talvez"
      },
      {
        "nome":"Darth Vader",
        "dt_nasc":"2500-02-30",
        "cpf":"666.666.666-66",
        "endereco": "Planeta Naboo, 500",
        "cep":"49031250",
        "cidade":"Deserto de Naboo",
        "email":"darthvader@gmail.com",
        "telefone":"(79) 98122-2233",
        "isc_estadual":null,
        "cnpj":"00.000.000/0000-00",
        "razao_social":null,
        "atualizadoem": "2019-01-01",
        "informacoes": "texto de blablablablabla e teste texto aqui talvez"
        }
  ],
  "semed":[
    {
      "nome":"Pessoa Física Cidadão Teste",
      "dt_nasc":"1992-08-04",
      "cpf":"000.000.000-22",
      "endereco": "rua dos naufragos, 554",
      "cep":"49160000",
      "cidade":"Nossa Senhora do Socorro",
      "email":"email@gmail.com",
      "telefone":"(79) 98122-2233",
      "isc_estadual":null,
      "cnpj":"11.111.222/0001-22",
      "razao_social":null,
      "atualizadoem": "2019-01-01",
      "informacoes": "texto de blablablablablals eteste texto aqui talvez"
    },
    {
      "nome":"Testinho 2",
      "dt_nasc":"1992-08-04",
      "cpf":"332.224.552-22",
      "endereco": "rua dos afogados, 554",
      "cep":"49160000",
      "cidade":"Nossa Senhora do Socorro",
      "email":"email@gmail.com",
      "telefone":"(79) 98122-2233",
      "isc_estadual":null,
      "cnpj":"11.111.222/0001-22",
      "razao_social":null,
      "atualizadoem": "2019-01-01",
      "informacoes": "texto de blablablablablals eteste texto aqui talvez"
      }
  ],
  "semfaz":[
    {
      "nome":"Pessoa Física Cidadão Fazendeiro",
      "dt_nasc":"1992-08-04",
      "cpf":"000.000.000-22",
      "endereco": "rua dos naufragos, 554",
      "cep":"49160000",
      "cidade":"Nossa Senhora do Socorro",
      "email":"email@gmail.com",
      "telefone":"(79) 98122-2233",
      "isc_estadual":null,
      "cnpj":"11.111.222/0001-22",
      "razao_social":null,
      "atualizadoem": "2019-01-01",
      "informacoes": "texto de blablablablablals eteste texto aqui talvezzzzzzzzzz"
    },
    {
      "nome":"Jãozinho laranjal",
      "dt_nasc":"1992-08-04",
      "cpf":"332.224.552-22",
      "endereco": "rua dos afogados, 554",
      "cep":"49160000",
      "cidade":"Nossa Senhora do Socorro",
      "email":"email@gmail.com",
      "telefone":"(79) 98122-2233",
      "isc_estadual":null,
      "cnpj":"11.111.222/0001-22",
      "razao_social":null,
      "atualizadoem": "2019-01-01",
      "informacoes": "texto de blablablablablals eteste texto aqui talvezzz"
      }
  ],
  "usuarios": [
    {
      "id": 1,
      "nome": "Usuario Teste",
      "email": "admin@gmail.com",
      "BearerToken": "eyJ0eXAiOiJKV1QiLCJhbGciOiJSUzI1NiIsImp0aSI6IjkyZjRkMTYxOWJjNWQzOGRkYmM0ODVhZjI2MWU3M2MzZGQwNTIyYTg1ODkyNDgyMzdjMTZjY2RlMjkxM2ZkNGY0ZDc1ZTQ1MmRiZmM2YjdhIn0.eyJhdWQiOiIxIiwianRpIjoiOTJmNGQxNjE5YmM1ZDM4ZGRiYzQ4NWFmMjYxZTczYzNkZDA1MjJhODU4OTI0ODIzN2MxNmNjZGUyOTEzZmQ0ZjRkNzVlNDUyZGJmYzZiN2EiLCJpYXQiOjE1NjkyNDYzNjYsIm5iZiI6MTU2OTI0NjM2NiwiZXhwIjoxNjAwODY4NzY1LCJzdWIiOiIxIiwic2NvcGVzIjpbXX0.pEwaI5km7LHO1kqPhMzEE0fj5Gx2hgU7CxIPqqJT6ejATsqqcuFwt_4hWbOKL-kFbwhuC7OVPYltmGNrl7LU_30uWlv4TtxHhiA3VqERJxpq1TzCOqa4TfxlKY1hX_UIRAOGiB_qPgnCALEQuMm7d40kmPRx0KuWdXHt3HIetThjUcB0BmgK5wzA2hBgm2s_5r2LK2yNYuyqUJxA2FQjq9lRSXlNR35Sro9CYUhkYhFb6vqu88P2n0-wYZcAnCD2AmUr0djbaeyMYfmVnTYjHediTHo4JTMTVNECmrgUo4b6mi5-TSIQ_1nNHuWVn8qJibdsPbZMeAhwQ7-3j0T7S0gpODV3bGl63gUoZ0hmzZLK0hrc85Ae4IQJqqj2okGHLB6wD13ZXpfcT7NSgEhZyTKDLh6OuOoW-RnPYlrco9qMHKeewSvoUmUYdK7ldCFFTensanIPva7ZRq3Qh-cs18jdu6YMTEEg9zXxMMrXyL3CzwfZ-0c4GXir7rXqimJjou0r4vJ7tT0zwHYE40JDLxXGb9-4FUqVQWNvBTbUkF9N9hnGR8TIpYbzsfasHaU7C1_XA6SO56wUCsjEEAkF3K2Gm4658cIGBTI_V0HIIV7MzfarDsWSMmlXKVOOgVYREZwLlk0Zq1tNMECty2_mytdp4iV7s92KhS8lymCnBHc",
      "permissao":"prefeito"
    }
  ],
  "permissoes": [
    {
      "id": 1,
      "user_id": "prefeito"
    },
    {
      "id": 2,
      "nome": "secretario"
    },
    {
      "id": 3,
      "nome": "agente"
    }
  ]  
}
